^C:\EPIC GAMES\C++\PROJECT_1_C++\DEBUG\PROJECT_1_C++.OBJ
C:\EPIC GAMES\C++\PROJECT_1_C++\DEBUG\PROJECT_1_C++.EXE
C:\EPIC GAMES\C++\PROJECT_1_C++\DEBUG\PROJECT_1_C++.ILK
C:\EPIC GAMES\C++\PROJECT_1_C++\DEBUG\PROJECT_1_C++.PDB
